digraph "rent4you.rent4youDataSet.periodeRowChangeEventHandler"
{
 // INTERACTIVE_SVG=YES
  edge [fontname="Helvetica",fontsize="10",labelfontname="Helvetica",labelfontsize="10"];
  node [fontname="Helvetica",fontsize="10",shape=record];
  rankdir="LR";
  Node49 [label="rent4you.rent4youDataSet.periode\lRowChangeEventHandler",height=0.2,width=0.4,color="black", fillcolor="grey75", style="filled", fontcolor="black"];
  Node49 -> Node50 [dir="back",color="midnightblue",fontsize="10",style="solid"];
  Node50 [label="rent4you.rent4youDataSet.\lGetTypedDataSetSchema",height=0.2,width=0.4,color="black", fillcolor="white", style="filled",URL="$classrent4you_1_1rent4you_data_set.html#a6c632fd76b895fd5f0b269d162f8c1f1"];
}
