digraph "rent4you.rent4youDataSet.adresseRowChangeEvent"
{
 // INTERACTIVE_SVG=YES
  edge [fontname="Helvetica",fontsize="10",labelfontname="Helvetica",labelfontsize="10"];
  node [fontname="Helvetica",fontsize="10",shape=record];
  Node2 [label="rent4you.rent4youDataSet.adresse\lRowChangeEvent",height=0.2,width=0.4,color="black", fillcolor="grey75", style="filled", fontcolor="black"];
  Node3 -> Node2 [dir="back",color="midnightblue",fontsize="10",style="solid",fontname="Helvetica"];
  Node3 [label="global::SystemEventArgs",height=0.2,width=0.4,color="grey75", fillcolor="white", style="filled"];
}
