digraph "rent4you.rent4youDataSet.adresseDataTable.CreateInstance"
{
 // INTERACTIVE_SVG=YES
  edge [fontname="Helvetica",fontsize="10",labelfontname="Helvetica",labelfontsize="10"];
  node [fontname="Helvetica",fontsize="10",shape=record];
  rankdir="LR";
  Node13 [label="rent4you.rent4youDataSet.adresse\lDataTable.CreateInstance",height=0.2,width=0.4,color="black", fillcolor="grey75", style="filled", fontcolor="black"];
  Node13 -> Node14 [color="midnightblue",fontsize="10",style="solid",fontname="Helvetica"];
  Node14 [label="rent4you.rent4youDataSet.adresse\lDataTable.adresseDataTable",height=0.2,width=0.4,color="black", fillcolor="white", style="filled",URL="$classrent4you_1_1rent4you_data_set_1_1adresse_data_table.html#acc848ee36d6e14e56300246dce7c3da1"];
}
