digraph "Graphical Class Hierarchy"
{
 // INTERACTIVE_SVG=YES
  edge [fontname="Helvetica",fontsize="10",labelfontname="Helvetica",labelfontsize="10"];
  node [fontname="Helvetica",fontsize="10",shape=record];
  rankdir="LR";
  Node18 [label="DataSet",height=0.2,width=0.4,color="grey75", fillcolor="white", style="filled"];
  Node18 -> Node0 [dir="back",color="midnightblue",fontsize="10",style="solid",fontname="Helvetica"];
  Node0 [label="rent4you.rent4youDataSet",height=0.2,width=0.4,color="black", fillcolor="white", style="filled",URL="$classrent4you_1_1rent4you_data_set.html",tooltip="Represents a strongly typed in-memory cache of data. /summary> "];
}
